%{
#include "chrono_vehicle/ChPart.h"
#include "chrono_vehicle/ChEngine.h"
#include "chrono_vehicle/ChPowertrainAssembly.h"  // Testing
%}

%include "chrono_vehicle/ChPart.h"
%include "chrono_vehicle/ChEngine.h"
// Include ChPowertrainAssembly - test
%include "chrono_vehicle/ChPowertrainAssembly.h"
